<svg width="16" height="16" viewBox="0 0 16 16" fill="none" xmlns="http://www.w3.org/2000/svg">
<path d="M1.14286 0H0V14.8571C0 15.1602 0.120408 15.4509 0.334735 15.6653C0.549062 15.8796 0.839753 16 1.14286 16H16V14.8571H1.14286V0Z" fill="#173145"/>
<path d="M15.9999 4H11.9999V5.14286H14.0514L9.71422 9.48L7.26279 7.02286C7.20967 6.9693 7.14647 6.92679 7.07683 6.89778C7.0072 6.86877 6.93251 6.85383 6.85707 6.85383C6.78164 6.85383 6.70695 6.86877 6.63732 6.89778C6.56768 6.92679 6.50448 6.9693 6.45136 7.02286L2.28564 11.1943L3.09136 12L6.85707 8.23429L9.3085 10.6914C9.36162 10.745 9.42482 10.7875 9.49446 10.8165C9.56409 10.8455 9.63878 10.8605 9.71422 10.8605C9.78965 10.8605 9.86434 10.8455 9.93397 10.8165C10.0036 10.7875 10.0668 10.745 10.1199 10.6914L14.8571 5.94857V8H15.9999V4Z" fill="#173145"/>
</svg>
