<svg width="408" height="217" viewBox="0 0 408 217" fill="none" xmlns="http://www.w3.org/2000/svg">
<path d="M6.95605 2.99902V4.37305H6.75098C5.82129 4.38672 5.07845 4.64193 4.52246 5.13867C3.96647 5.63542 3.63607 6.33952 3.53125 7.25098C4.06445 6.69043 4.74577 6.41016 5.5752 6.41016C6.45475 6.41016 7.14746 6.72005 7.65332 7.33984C8.16374 7.95964 8.41895 8.75944 8.41895 9.73926C8.41895 10.751 8.12044 11.5713 7.52344 12.2002C6.93099 12.8245 6.15169 13.1367 5.18555 13.1367C4.19206 13.1367 3.38542 12.7699 2.76562 12.0361C2.15039 11.3024 1.84277 10.3408 1.84277 9.15137V8.58398C1.84277 6.83854 2.2666 5.47135 3.11426 4.48242C3.96647 3.49349 5.1901 2.99902 6.78516 2.99902H6.95605ZM5.17188 7.75C4.80729 7.75 4.47233 7.85254 4.16699 8.05762C3.86621 8.2627 3.64518 8.53613 3.50391 8.87793V9.38379C3.50391 10.1221 3.65885 10.71 3.96875 11.1475C4.27865 11.5804 4.67969 11.7969 5.17188 11.7969C5.66406 11.7969 6.05371 11.6123 6.34082 11.2432C6.62793 10.874 6.77148 10.3887 6.77148 9.78711C6.77148 9.18555 6.62565 8.69564 6.33398 8.31738C6.04232 7.93913 5.65495 7.75 5.17188 7.75Z" fill="#718498"/>
<path d="M2.23242 40.0645L2.77246 35.0469H8.11816V36.4824H4.15332L3.87988 38.8613C4.34017 38.597 4.8597 38.4648 5.43848 38.4648C6.38639 38.4648 7.1224 38.7679 7.64648 39.374C8.17513 39.9801 8.43945 40.7959 8.43945 41.8213C8.43945 42.833 8.14779 43.6396 7.56445 44.2412C6.98112 44.8382 6.18132 45.1367 5.16504 45.1367C4.25358 45.1367 3.49707 44.8792 2.89551 44.3643C2.2985 43.8447 1.97493 43.1611 1.9248 42.3135H3.53125C3.59505 42.7965 3.76823 43.168 4.05078 43.4277C4.33333 43.6829 4.70247 43.8105 5.1582 43.8105C5.66862 43.8105 6.0651 43.6283 6.34766 43.2637C6.63477 42.8991 6.77832 42.4023 6.77832 41.7734C6.77832 41.1673 6.62109 40.6888 6.30664 40.3379C5.99219 39.9824 5.55924 39.8047 5.00781 39.8047C4.70703 39.8047 4.45182 39.8457 4.24219 39.9277C4.03255 40.0052 3.80469 40.1602 3.55859 40.3926L2.23242 40.0645Z" fill="#718498"/>
<path d="M7.40723 73.4521H8.64453V74.7852H7.40723V77H5.74609V74.7852H1.44629L1.39844 73.7734L5.69141 67.0469H7.40723V73.4521ZM3.1416 73.4521H5.74609V69.2959L5.62305 69.5146L3.1416 73.4521Z" fill="#718498"/>
<path d="M3.70898 103.265H4.7207C5.23112 103.26 5.63444 103.128 5.93066 102.868C6.23145 102.608 6.38184 102.232 6.38184 101.74C6.38184 101.266 6.25651 100.899 6.00586 100.64C5.75977 100.375 5.38151 100.243 4.87109 100.243C4.42448 100.243 4.05762 100.373 3.77051 100.633C3.4834 100.888 3.33984 101.223 3.33984 101.638H1.67871C1.67871 101.127 1.81315 100.662 2.08203 100.243C2.35547 99.8239 2.73372 99.498 3.2168 99.2656C3.70443 99.0286 4.24902 98.9102 4.85059 98.9102C5.84408 98.9102 6.62337 99.1608 7.18848 99.6621C7.75814 100.159 8.04297 100.852 8.04297 101.74C8.04297 102.187 7.89941 102.608 7.6123 103.005C7.32975 103.397 6.96289 103.693 6.51172 103.894C7.05859 104.08 7.47331 104.374 7.75586 104.775C8.04297 105.176 8.18652 105.655 8.18652 106.211C8.18652 107.104 7.87891 107.815 7.26367 108.344C6.65299 108.872 5.84863 109.137 4.85059 109.137C3.89355 109.137 3.1097 108.882 2.49902 108.371C1.88835 107.861 1.58301 107.182 1.58301 106.334H3.24414C3.24414 106.771 3.38997 107.127 3.68164 107.4C3.97786 107.674 4.37435 107.811 4.87109 107.811C5.38607 107.811 5.79167 107.674 6.08789 107.4C6.38411 107.127 6.53223 106.73 6.53223 106.211C6.53223 105.687 6.37728 105.284 6.06738 105.001C5.75749 104.718 5.2972 104.577 4.68652 104.577H3.70898V103.265Z" fill="#718498"/>
<path d="M8.48047 141H1.78809V139.858L5.10352 136.242C5.58203 135.709 5.92155 135.265 6.12207 134.909C6.32715 134.549 6.42969 134.189 6.42969 133.829C6.42969 133.355 6.29525 132.972 6.02637 132.681C5.76204 132.389 5.4043 132.243 4.95312 132.243C4.41536 132.243 3.99837 132.407 3.70215 132.735C3.40592 133.063 3.25781 133.512 3.25781 134.082H1.59668C1.59668 133.476 1.7334 132.931 2.00684 132.448C2.28483 131.961 2.67904 131.582 3.18945 131.313C3.70443 131.045 4.29688 130.91 4.9668 130.91C5.93294 130.91 6.69401 131.154 7.25 131.642C7.81055 132.125 8.09082 132.795 8.09082 133.651C8.09082 134.148 7.94954 134.67 7.66699 135.217C7.389 135.759 6.93099 136.377 6.29297 137.069L3.85938 139.674H8.48047V141Z" fill="#718498"/>
<path d="M6.23047 173H4.57617V165.009L2.13574 165.843V164.441L6.01855 163.013H6.23047V173Z" fill="#718498"/>
<path d="M25.4854 207.064L26.0254 202.047H31.3711V203.482H27.4062L27.1328 205.861C27.5931 205.597 28.1126 205.465 28.6914 205.465C29.6393 205.465 30.3753 205.768 30.8994 206.374C31.4281 206.98 31.6924 207.796 31.6924 208.821C31.6924 209.833 31.4007 210.64 30.8174 211.241C30.234 211.838 29.4342 212.137 28.418 212.137C27.5065 212.137 26.75 211.879 26.1484 211.364C25.5514 210.845 25.2279 210.161 25.1777 209.313H26.7842C26.848 209.797 27.0212 210.168 27.3037 210.428C27.5863 210.683 27.9554 210.811 28.4111 210.811C28.9215 210.811 29.318 210.628 29.6006 210.264C29.8877 209.899 30.0312 209.402 30.0312 208.773C30.0312 208.167 29.874 207.689 29.5596 207.338C29.2451 206.982 28.8122 206.805 28.2607 206.805C27.96 206.805 27.7048 206.846 27.4951 206.928C27.2855 207.005 27.0576 207.16 26.8115 207.393L25.4854 207.064ZM33.5723 212.854H32.2666L36.1836 202.047H37.4893L33.5723 212.854ZM43.0332 212H41.3789V204.009L38.9385 204.843V203.441L42.8213 202.013H43.0332V212ZM48.4131 206.265H49.4248C49.9352 206.26 50.3385 206.128 50.6348 205.868C50.9355 205.608 51.0859 205.232 51.0859 204.74C51.0859 204.266 50.9606 203.899 50.71 203.64C50.4639 203.375 50.0856 203.243 49.5752 203.243C49.1286 203.243 48.7617 203.373 48.4746 203.633C48.1875 203.888 48.0439 204.223 48.0439 204.638H46.3828C46.3828 204.127 46.5173 203.662 46.7861 203.243C47.0596 202.824 47.4378 202.498 47.9209 202.266C48.4085 202.029 48.9531 201.91 49.5547 201.91C50.5482 201.91 51.3275 202.161 51.8926 202.662C52.4622 203.159 52.7471 203.852 52.7471 204.74C52.7471 205.187 52.6035 205.608 52.3164 206.005C52.0339 206.397 51.667 206.693 51.2158 206.894C51.7627 207.08 52.1774 207.374 52.46 207.775C52.7471 208.176 52.8906 208.655 52.8906 209.211C52.8906 210.104 52.583 210.815 51.9678 211.344C51.3571 211.872 50.5527 212.137 49.5547 212.137C48.5977 212.137 47.8138 211.882 47.2031 211.371C46.5924 210.861 46.2871 210.182 46.2871 209.334H47.9482C47.9482 209.771 48.0941 210.127 48.3857 210.4C48.682 210.674 49.0785 210.811 49.5752 210.811C50.0902 210.811 50.4958 210.674 50.792 210.4C51.0882 210.127 51.2363 209.73 51.2363 209.211C51.2363 208.687 51.0814 208.284 50.7715 208.001C50.4616 207.718 50.0013 207.577 49.3906 207.577H48.4131V206.265Z" fill="#718498"/>
<path d="M85.4297 207.064L85.9697 202.047H91.3154V203.482H87.3506L87.0771 205.861C87.5374 205.597 88.057 205.465 88.6357 205.465C89.5837 205.465 90.3197 205.768 90.8438 206.374C91.3724 206.98 91.6367 207.796 91.6367 208.821C91.6367 209.833 91.3451 210.64 90.7617 211.241C90.1784 211.838 89.3786 212.137 88.3623 212.137C87.4508 212.137 86.6943 211.879 86.0928 211.364C85.4958 210.845 85.1722 210.161 85.1221 209.313H86.7285C86.7923 209.797 86.9655 210.168 87.248 210.428C87.5306 210.683 87.8997 210.811 88.3555 210.811C88.8659 210.811 89.2624 210.628 89.5449 210.264C89.832 209.899 89.9756 209.402 89.9756 208.773C89.9756 208.167 89.8184 207.689 89.5039 207.338C89.1895 206.982 88.7565 206.805 88.2051 206.805C87.9043 206.805 87.6491 206.846 87.4395 206.928C87.2298 207.005 87.002 207.16 86.7559 207.393L85.4297 207.064ZM93.5166 212.854H92.2109L96.1279 202.047H97.4336L93.5166 212.854ZM102.978 212H101.323V204.009L98.8828 204.843V203.441L102.766 202.013H102.978V212ZM112.705 204.672C112.705 205.16 112.58 205.595 112.329 205.978C112.078 206.356 111.737 206.654 111.304 206.873C111.823 207.115 112.222 207.445 112.5 207.864C112.783 208.284 112.924 208.757 112.924 209.286C112.924 210.161 112.628 210.856 112.035 211.371C111.443 211.882 110.654 212.137 109.67 212.137C108.681 212.137 107.888 211.879 107.291 211.364C106.699 210.849 106.402 210.157 106.402 209.286C106.402 208.753 106.544 208.274 106.826 207.851C107.109 207.427 107.505 207.101 108.016 206.873C107.587 206.654 107.248 206.356 106.997 205.978C106.751 205.595 106.628 205.16 106.628 204.672C106.628 203.824 106.901 203.152 107.448 202.655C107.995 202.159 108.733 201.91 109.663 201.91C110.597 201.91 111.338 202.159 111.885 202.655C112.432 203.152 112.705 203.824 112.705 204.672ZM111.263 209.204C111.263 208.712 111.115 208.315 110.818 208.015C110.527 207.709 110.139 207.557 109.656 207.557C109.173 207.557 108.786 207.707 108.494 208.008C108.207 208.309 108.063 208.707 108.063 209.204C108.063 209.692 108.205 210.081 108.487 210.373C108.774 210.665 109.169 210.811 109.67 210.811C110.171 210.811 110.561 210.669 110.839 210.387C111.121 210.104 111.263 209.71 111.263 209.204ZM111.051 204.733C111.051 204.3 110.925 203.945 110.675 203.667C110.424 203.384 110.087 203.243 109.663 203.243C109.239 203.243 108.904 203.378 108.658 203.646C108.412 203.911 108.289 204.273 108.289 204.733C108.289 205.189 108.412 205.551 108.658 205.82C108.909 206.089 109.246 206.224 109.67 206.224C110.094 206.224 110.429 206.089 110.675 205.82C110.925 205.551 111.051 205.189 111.051 204.733Z" fill="#718498"/>
<path d="M144.43 207.064L144.97 202.047H150.315V203.482H146.351L146.077 205.861C146.537 205.597 147.057 205.465 147.636 205.465C148.584 205.465 149.32 205.768 149.844 206.374C150.372 206.98 150.637 207.796 150.637 208.821C150.637 209.833 150.345 210.64 149.762 211.241C149.178 211.838 148.379 212.137 147.362 212.137C146.451 212.137 145.694 211.879 145.093 211.364C144.496 210.845 144.172 210.161 144.122 209.313H145.729C145.792 209.797 145.965 210.168 146.248 210.428C146.531 210.683 146.9 210.811 147.355 210.811C147.866 210.811 148.262 210.628 148.545 210.264C148.832 209.899 148.976 209.402 148.976 208.773C148.976 208.167 148.818 207.689 148.504 207.338C148.189 206.982 147.757 206.805 147.205 206.805C146.904 206.805 146.649 206.846 146.439 206.928C146.23 207.005 146.002 207.16 145.756 207.393L144.43 207.064ZM152.517 212.854H151.211L155.128 202.047H156.434L152.517 212.854ZM164.172 212H157.479V210.858L160.795 207.242C161.273 206.709 161.613 206.265 161.813 205.909C162.019 205.549 162.121 205.189 162.121 204.829C162.121 204.355 161.987 203.972 161.718 203.681C161.453 203.389 161.096 203.243 160.645 203.243C160.107 203.243 159.69 203.407 159.394 203.735C159.097 204.063 158.949 204.512 158.949 205.082H157.288C157.288 204.476 157.425 203.931 157.698 203.448C157.976 202.961 158.37 202.582 158.881 202.313C159.396 202.045 159.988 201.91 160.658 201.91C161.624 201.91 162.385 202.154 162.941 202.642C163.502 203.125 163.782 203.795 163.782 204.651C163.782 205.148 163.641 205.67 163.358 206.217C163.08 206.759 162.622 207.377 161.984 208.069L159.551 210.674H164.172V212ZM169.935 212H168.28V204.009L165.84 204.843V203.441L169.723 202.013H169.935V212Z" fill="#718498"/>
<path d="M203.43 207.064L203.97 202.047H209.315V203.482H205.351L205.077 205.861C205.537 205.597 206.057 205.465 206.636 205.465C207.584 205.465 208.32 205.768 208.844 206.374C209.372 206.98 209.637 207.796 209.637 208.821C209.637 209.833 209.345 210.64 208.762 211.241C208.178 211.838 207.379 212.137 206.362 212.137C205.451 212.137 204.694 211.879 204.093 211.364C203.496 210.845 203.172 210.161 203.122 209.313H204.729C204.792 209.797 204.965 210.168 205.248 210.428C205.531 210.683 205.9 210.811 206.355 210.811C206.866 210.811 207.262 210.628 207.545 210.264C207.832 209.899 207.976 209.402 207.976 208.773C207.976 208.167 207.818 207.689 207.504 207.338C207.189 206.982 206.757 206.805 206.205 206.805C205.904 206.805 205.649 206.846 205.439 206.928C205.23 207.005 205.002 207.16 204.756 207.393L203.43 207.064ZM211.517 212.854H210.211L214.128 202.047H215.434L211.517 212.854ZM223.172 212H216.479V210.858L219.795 207.242C220.273 206.709 220.613 206.265 220.813 205.909C221.019 205.549 221.121 205.189 221.121 204.829C221.121 204.355 220.987 203.972 220.718 203.681C220.453 203.389 220.096 203.243 219.645 203.243C219.107 203.243 218.69 203.407 218.394 203.735C218.097 204.063 217.949 204.512 217.949 205.082H216.288C216.288 204.476 216.425 203.931 216.698 203.448C216.976 202.961 217.37 202.582 217.881 202.313C218.396 202.045 218.988 201.91 219.658 201.91C220.624 201.91 221.385 202.154 221.941 202.642C222.502 203.125 222.782 203.795 222.782 204.651C222.782 205.148 222.641 205.67 222.358 206.217C222.08 206.759 221.622 207.377 220.984 208.069L218.551 210.674H223.172V212ZM229.604 201.999V203.373H229.399C228.47 203.387 227.727 203.642 227.171 204.139C226.615 204.635 226.285 205.34 226.18 206.251C226.713 205.69 227.394 205.41 228.224 205.41C229.103 205.41 229.796 205.72 230.302 206.34C230.812 206.96 231.067 207.759 231.067 208.739C231.067 209.751 230.769 210.571 230.172 211.2C229.579 211.825 228.8 212.137 227.834 212.137C226.84 212.137 226.034 211.77 225.414 211.036C224.799 210.302 224.491 209.341 224.491 208.151V207.584C224.491 205.839 224.915 204.471 225.763 203.482C226.615 202.493 227.839 201.999 229.434 201.999H229.604ZM227.82 206.75C227.456 206.75 227.121 206.853 226.815 207.058C226.515 207.263 226.294 207.536 226.152 207.878V208.384C226.152 209.122 226.307 209.71 226.617 210.147C226.927 210.58 227.328 210.797 227.82 210.797C228.312 210.797 228.702 210.612 228.989 210.243C229.276 209.874 229.42 209.389 229.42 208.787C229.42 208.186 229.274 207.696 228.982 207.317C228.691 206.939 228.303 206.75 227.82 206.75Z" fill="#718498"/>
<path d="M266.408 207.064L266.948 202.047H272.294V203.482H268.329L268.056 205.861C268.516 205.597 269.035 205.465 269.614 205.465C270.562 205.465 271.298 205.768 271.822 206.374C272.351 206.98 272.615 207.796 272.615 208.821C272.615 209.833 272.324 210.64 271.74 211.241C271.157 211.838 270.357 212.137 269.341 212.137C268.429 212.137 267.673 211.879 267.071 211.364C266.474 210.845 266.151 210.161 266.101 209.313H267.707C267.771 209.797 267.944 210.168 268.227 210.428C268.509 210.683 268.878 210.811 269.334 210.811C269.844 210.811 270.241 210.628 270.523 210.264C270.811 209.899 270.954 209.402 270.954 208.773C270.954 208.167 270.797 207.689 270.482 207.338C270.168 206.982 269.735 206.805 269.184 206.805C268.883 206.805 268.628 206.846 268.418 206.928C268.208 207.005 267.98 207.16 267.734 207.393L266.408 207.064ZM274.495 212.854H273.189L277.106 202.047H278.412L274.495 212.854ZM283.956 212H282.302V204.009L279.861 204.843V203.441L283.744 202.013H283.956V212Z" fill="#718498"/>
<path d="M330.132 201.999V203.373H329.927C328.997 203.387 328.254 203.642 327.698 204.139C327.142 204.635 326.812 205.34 326.707 206.251C327.24 205.69 327.922 205.41 328.751 205.41C329.631 205.41 330.323 205.72 330.829 206.34C331.34 206.96 331.595 207.759 331.595 208.739C331.595 209.751 331.296 210.571 330.699 211.2C330.107 211.825 329.327 212.137 328.361 212.137C327.368 212.137 326.561 211.77 325.941 211.036C325.326 210.302 325.019 209.341 325.019 208.151V207.584C325.019 205.839 325.442 204.471 326.29 203.482C327.142 202.493 328.366 201.999 329.961 201.999H330.132ZM328.348 206.75C327.983 206.75 327.648 206.853 327.343 207.058C327.042 207.263 326.821 207.536 326.68 207.878V208.384C326.68 209.122 326.835 209.71 327.145 210.147C327.454 210.58 327.855 210.797 328.348 210.797C328.84 210.797 329.229 210.612 329.517 210.243C329.804 209.874 329.947 209.389 329.947 208.787C329.947 208.186 329.801 207.696 329.51 207.317C329.218 206.939 328.831 206.75 328.348 206.75ZM333.495 212.854H332.189L336.106 202.047H337.412L333.495 212.854ZM344.077 208.452H345.314V209.785H344.077V212H342.416V209.785H338.116L338.068 208.773L342.361 202.047H344.077V208.452ZM339.812 208.452H342.416V204.296L342.293 204.515L339.812 208.452Z" fill="#718498"/>
<path d="M389.132 201.999V203.373H388.927C387.997 203.387 387.254 203.642 386.698 204.139C386.142 204.635 385.812 205.34 385.707 206.251C386.24 205.69 386.922 205.41 387.751 205.41C388.631 205.41 389.323 205.72 389.829 206.34C390.34 206.96 390.595 207.759 390.595 208.739C390.595 209.751 390.296 210.571 389.699 211.2C389.107 211.825 388.327 212.137 387.361 212.137C386.368 212.137 385.561 211.77 384.941 211.036C384.326 210.302 384.019 209.341 384.019 208.151V207.584C384.019 205.839 384.442 204.471 385.29 203.482C386.142 202.493 387.366 201.999 388.961 201.999H389.132ZM387.348 206.75C386.983 206.75 386.648 206.853 386.343 207.058C386.042 207.263 385.821 207.536 385.68 207.878V208.384C385.68 209.122 385.835 209.71 386.145 210.147C386.454 210.58 386.855 210.797 387.348 210.797C387.84 210.797 388.229 210.612 388.517 210.243C388.804 209.874 388.947 209.389 388.947 208.787C388.947 208.186 388.801 207.696 388.51 207.317C388.218 206.939 387.831 206.75 387.348 206.75ZM392.495 212.854H391.189L395.106 202.047H396.412L392.495 212.854ZM404.082 202.97L400.104 212H398.36L402.332 203.38H397.185V202.047H404.082V202.97Z" fill="#718498"/>
<line x1="39.1943" y1="22" x2="39.1943" y2="217" stroke="#AAAAAA" stroke-width="0.5" stroke-dasharray="2 5"/>
<line x1="20.9443" y1="40.75" x2="407.944" y2="40.75" stroke="#D9D9D9" stroke-width="0.5"/>
<line x1="20.9443" y1="72.75" x2="407.944" y2="72.75" stroke="#D9D9D9" stroke-width="0.5"/>
<line x1="20.9443" y1="104.75" x2="407.944" y2="104.75" stroke="#D9D9D9" stroke-width="0.5"/>
<line x1="20.9443" y1="136.75" x2="407.944" y2="136.75" stroke="#D9D9D9" stroke-width="0.5"/>
<line x1="20.9443" y1="168.75" x2="407.944" y2="168.75" stroke="#D9D9D9" stroke-width="0.5"/>
<line x1="20.9443" y1="200.75" x2="407.944" y2="200.75" stroke="#D9D9D9" stroke-width="0.5"/>
<line x1="99.1943" y1="22" x2="99.1943" y2="217" stroke="#AAAAAA" stroke-width="0.5" stroke-dasharray="2 5"/>
<line x1="158.194" y1="22" x2="158.194" y2="217" stroke="#AAAAAA" stroke-width="0.5" stroke-dasharray="2 5"/>
<line x1="217.194" y1="22" x2="217.194" y2="217" stroke="#AAAAAA" stroke-width="0.5" stroke-dasharray="2 5"/>
<line x1="275.194" y1="22" x2="275.194" y2="217" stroke="#AAAAAA" stroke-width="0.5" stroke-dasharray="2 5"/>
<line x1="335.194" y1="22" x2="335.194" y2="217" stroke="#AAAAAA" stroke-width="0.5" stroke-dasharray="2 5"/>
<line x1="394.194" y1="22" x2="394.194" y2="217" stroke="#AAAAAA" stroke-width="0.5" stroke-dasharray="2 5"/>
<path d="M39.9443 142C68.9443 142 68.9443 178.5 99.4443 178.5C129.944 178.5 130.944 96.5 158.444 96.5C185.944 96.5 187.944 131.5 217.444 131.5C246.944 131.5 246.444 68.5 275.444 68.5C304.444 68.5 303.944 164 335.444 164C366.944 164 365.444 115 394.444 115" stroke="#26AAAA"/>
</svg>
