<svg width="426" height="217" viewBox="0 0 426 217" fill="none" xmlns="http://www.w3.org/2000/svg">
<path d="M3.4707 7.26465H4.48242C4.99284 7.26009 5.39616 7.12793 5.69238 6.86816C5.99316 6.6084 6.14355 6.23242 6.14355 5.74023C6.14355 5.26628 6.01823 4.89941 5.76758 4.63965C5.52148 4.37533 5.14323 4.24316 4.63281 4.24316C4.1862 4.24316 3.81934 4.37305 3.53223 4.63281C3.24512 4.88802 3.10156 5.22298 3.10156 5.6377H1.44043C1.44043 5.12728 1.57487 4.66243 1.84375 4.24316C2.11719 3.82389 2.49544 3.49805 2.97852 3.26562C3.46615 3.02865 4.01074 2.91016 4.6123 2.91016C5.60579 2.91016 6.38509 3.16081 6.9502 3.66211C7.51986 4.15885 7.80469 4.85156 7.80469 5.74023C7.80469 6.18685 7.66113 6.6084 7.37402 7.00488C7.09147 7.39681 6.72461 7.69303 6.27344 7.89355C6.82031 8.0804 7.23503 8.37435 7.51758 8.77539C7.80469 9.17643 7.94824 9.65495 7.94824 10.2109C7.94824 11.1042 7.64062 11.8151 7.02539 12.3438C6.41471 12.8724 5.61035 13.1367 4.6123 13.1367C3.65527 13.1367 2.87142 12.8815 2.26074 12.3711C1.65007 11.8607 1.34473 11.1816 1.34473 10.334H3.00586C3.00586 10.7715 3.15169 11.127 3.44336 11.4004C3.73958 11.6738 4.13607 11.8105 4.63281 11.8105C5.14779 11.8105 5.55339 11.6738 5.84961 11.4004C6.14583 11.127 6.29395 10.7305 6.29395 10.2109C6.29395 9.68685 6.139 9.28353 5.8291 9.00098C5.51921 8.71842 5.05892 8.57715 4.44824 8.57715H3.4707V7.26465ZM15.9941 8.80957C15.9941 10.2406 15.7253 11.3206 15.1875 12.0498C14.6543 12.7744 13.8408 13.1367 12.7471 13.1367C11.6715 13.1367 10.8604 12.7835 10.3135 12.0771C9.77116 11.3662 9.49316 10.3158 9.47949 8.92578V7.20312C9.47949 5.77214 9.74609 4.69889 10.2793 3.9834C10.8171 3.2679 11.6351 2.91016 12.7334 2.91016C13.8226 2.91016 14.6338 3.25879 15.167 3.95605C15.7048 4.65332 15.9805 5.69694 15.9941 7.08691V8.80957ZM14.333 6.9502C14.333 6.01595 14.2054 5.33236 13.9502 4.89941C13.695 4.46191 13.2894 4.24316 12.7334 4.24316C12.1911 4.24316 11.7923 4.45052 11.5371 4.86523C11.2819 5.27539 11.1475 5.91797 11.1338 6.79297V9.04883C11.1338 9.97852 11.2637 10.6712 11.5234 11.127C11.7832 11.5827 12.1911 11.8105 12.7471 11.8105C13.2803 11.8105 13.6745 11.6009 13.9297 11.1816C14.1849 10.7578 14.3193 10.097 14.333 9.19922V6.9502ZM17.3955 4.96094C17.3955 4.35938 17.5892 3.86719 17.9766 3.48438C18.3639 3.09701 18.8721 2.90332 19.501 2.90332C20.139 2.90332 20.6494 3.09701 21.0322 3.48438C21.4196 3.86719 21.6133 4.37077 21.6133 4.99512V5.4873C21.6133 6.08431 21.4196 6.57422 21.0322 6.95703C20.6494 7.33984 20.1436 7.53125 19.5146 7.53125C18.8994 7.53125 18.3913 7.3444 17.9902 6.9707C17.5938 6.59245 17.3955 6.08431 17.3955 5.44629V4.96094ZM18.5576 5.4873C18.5576 5.80176 18.6442 6.05697 18.8174 6.25293C18.9951 6.44434 19.2275 6.54004 19.5146 6.54004C19.7972 6.54004 20.0251 6.44434 20.1982 6.25293C20.3714 6.05697 20.458 5.79264 20.458 5.45996V4.96094C20.458 4.64648 20.3691 4.39128 20.1914 4.19531C20.0182 3.99935 19.7881 3.90137 19.501 3.90137C19.2139 3.90137 18.9837 4.00163 18.8105 4.20215C18.6419 4.39811 18.5576 4.65788 18.5576 4.98145V5.4873ZM22.1807 10.5596C22.1807 9.94889 22.3789 9.45443 22.7754 9.07617C23.1719 8.69792 23.6777 8.50879 24.293 8.50879C24.9128 8.50879 25.4186 8.69792 25.8105 9.07617C26.207 9.45443 26.4053 9.96484 26.4053 10.6074V11.0928C26.4053 11.6852 26.2139 12.1751 25.8311 12.5625C25.4528 12.9453 24.9447 13.1367 24.3066 13.1367C23.6686 13.1367 23.1536 12.9476 22.7617 12.5693C22.3743 12.1865 22.1807 11.6829 22.1807 11.0586V10.5596ZM23.3428 11.0928C23.3428 11.4027 23.4316 11.6579 23.6094 11.8584C23.7917 12.0544 24.0241 12.1523 24.3066 12.1523C24.5983 12.1523 24.8262 12.0589 24.9902 11.8721C25.1589 11.6807 25.2432 11.4141 25.2432 11.0723V10.5596C25.2432 10.2406 25.1543 9.98535 24.9766 9.79395C24.7988 9.60254 24.571 9.50684 24.293 9.50684C24.0104 9.50684 23.7803 9.60254 23.6025 9.79395C23.4294 9.98535 23.3428 10.2497 23.3428 10.5869V11.0928ZM19.8564 12.2549L19.002 11.7627L23.8623 3.9834L24.7168 4.47559L19.8564 12.2549Z" fill="#718498"/>
<path d="M8.24219 45H1.5498V43.8584L4.86523 40.2422C5.34375 39.709 5.68327 39.2646 5.88379 38.9092C6.08887 38.5492 6.19141 38.1891 6.19141 37.8291C6.19141 37.3551 6.05697 36.9723 5.78809 36.6807C5.52376 36.389 5.16602 36.2432 4.71484 36.2432C4.17708 36.2432 3.76009 36.4072 3.46387 36.7354C3.16764 37.0635 3.01953 37.5124 3.01953 38.082H1.3584C1.3584 37.4759 1.49512 36.9313 1.76855 36.4482C2.04655 35.9606 2.44076 35.5824 2.95117 35.3135C3.46615 35.0446 4.05859 34.9102 4.72852 34.9102C5.69466 34.9102 6.45573 35.154 7.01172 35.6416C7.57227 36.1247 7.85254 36.7946 7.85254 37.6514C7.85254 38.1481 7.71126 38.6699 7.42871 39.2168C7.15072 39.7591 6.69271 40.3766 6.05469 41.0693L3.62109 43.6738H8.24219V45ZM9.95117 40.0645L10.4912 35.0469H15.8369V36.4824H11.8721L11.5986 38.8613C12.0589 38.597 12.5785 38.4648 13.1572 38.4648C14.1051 38.4648 14.8411 38.7679 15.3652 39.374C15.8939 39.9801 16.1582 40.7959 16.1582 41.8213C16.1582 42.833 15.8665 43.6396 15.2832 44.2412C14.6999 44.8382 13.9001 45.1367 12.8838 45.1367C11.9723 45.1367 11.2158 44.8792 10.6143 44.3643C10.0173 43.8447 9.69368 43.1611 9.64355 42.3135H11.25C11.3138 42.7965 11.487 43.168 11.7695 43.4277C12.0521 43.6829 12.4212 43.8105 12.877 43.8105C13.3874 43.8105 13.7839 43.6283 14.0664 43.2637C14.3535 42.8991 14.4971 42.4023 14.4971 41.7734C14.4971 41.1673 14.3398 40.6888 14.0254 40.3379C13.7109 39.9824 13.278 39.8047 12.7266 39.8047C12.4258 39.8047 12.1706 39.8457 11.9609 39.9277C11.7513 40.0052 11.5234 40.1602 11.2773 40.3926L9.95117 40.0645ZM17.3955 36.9609C17.3955 36.3594 17.5892 35.8672 17.9766 35.4844C18.3639 35.097 18.8721 34.9033 19.501 34.9033C20.139 34.9033 20.6494 35.097 21.0322 35.4844C21.4196 35.8672 21.6133 36.3708 21.6133 36.9951V37.4873C21.6133 38.0843 21.4196 38.5742 21.0322 38.957C20.6494 39.3398 20.1436 39.5312 19.5146 39.5312C18.8994 39.5312 18.3913 39.3444 17.9902 38.9707C17.5938 38.5924 17.3955 38.0843 17.3955 37.4463V36.9609ZM18.5576 37.4873C18.5576 37.8018 18.6442 38.057 18.8174 38.2529C18.9951 38.4443 19.2275 38.54 19.5146 38.54C19.7972 38.54 20.0251 38.4443 20.1982 38.2529C20.3714 38.057 20.458 37.7926 20.458 37.46V36.9609C20.458 36.6465 20.3691 36.3913 20.1914 36.1953C20.0182 35.9993 19.7881 35.9014 19.501 35.9014C19.2139 35.9014 18.9837 36.0016 18.8105 36.2021C18.6419 36.3981 18.5576 36.6579 18.5576 36.9814V37.4873ZM22.1807 42.5596C22.1807 41.9489 22.3789 41.4544 22.7754 41.0762C23.1719 40.6979 23.6777 40.5088 24.293 40.5088C24.9128 40.5088 25.4186 40.6979 25.8105 41.0762C26.207 41.4544 26.4053 41.9648 26.4053 42.6074V43.0928C26.4053 43.6852 26.2139 44.1751 25.8311 44.5625C25.4528 44.9453 24.9447 45.1367 24.3066 45.1367C23.6686 45.1367 23.1536 44.9476 22.7617 44.5693C22.3743 44.1865 22.1807 43.6829 22.1807 43.0586V42.5596ZM23.3428 43.0928C23.3428 43.4027 23.4316 43.6579 23.6094 43.8584C23.7917 44.0544 24.0241 44.1523 24.3066 44.1523C24.5983 44.1523 24.8262 44.0589 24.9902 43.8721C25.1589 43.6807 25.2432 43.4141 25.2432 43.0723V42.5596C25.2432 42.2406 25.1543 41.9854 24.9766 41.7939C24.7988 41.6025 24.571 41.5068 24.293 41.5068C24.0104 41.5068 23.7803 41.6025 23.6025 41.7939C23.4294 41.9854 23.3428 42.2497 23.3428 42.5869V43.0928ZM19.8564 44.2549L19.002 43.7627L23.8623 35.9834L24.7168 36.4756L19.8564 44.2549Z" fill="#718498"/>
<path d="M8.24219 77H1.5498V75.8584L4.86523 72.2422C5.34375 71.709 5.68327 71.2646 5.88379 70.9092C6.08887 70.5492 6.19141 70.1891 6.19141 69.8291C6.19141 69.3551 6.05697 68.9723 5.78809 68.6807C5.52376 68.389 5.16602 68.2432 4.71484 68.2432C4.17708 68.2432 3.76009 68.4072 3.46387 68.7354C3.16764 69.0635 3.01953 69.5124 3.01953 70.082H1.3584C1.3584 69.4759 1.49512 68.9313 1.76855 68.4482C2.04655 67.9606 2.44076 67.5824 2.95117 67.3135C3.46615 67.0446 4.05859 66.9102 4.72852 66.9102C5.69466 66.9102 6.45573 67.154 7.01172 67.6416C7.57227 68.1247 7.85254 68.7946 7.85254 69.6514C7.85254 70.1481 7.71126 70.6699 7.42871 71.2168C7.15072 71.7591 6.69271 72.3766 6.05469 73.0693L3.62109 75.6738H8.24219V77ZM15.9941 72.8096C15.9941 74.2406 15.7253 75.3206 15.1875 76.0498C14.6543 76.7744 13.8408 77.1367 12.7471 77.1367C11.6715 77.1367 10.8604 76.7835 10.3135 76.0771C9.77116 75.3662 9.49316 74.3158 9.47949 72.9258V71.2031C9.47949 69.7721 9.74609 68.6989 10.2793 67.9834C10.8171 67.2679 11.6351 66.9102 12.7334 66.9102C13.8226 66.9102 14.6338 67.2588 15.167 67.9561C15.7048 68.6533 15.9805 69.6969 15.9941 71.0869V72.8096ZM14.333 70.9502C14.333 70.016 14.2054 69.3324 13.9502 68.8994C13.695 68.4619 13.2894 68.2432 12.7334 68.2432C12.1911 68.2432 11.7923 68.4505 11.5371 68.8652C11.2819 69.2754 11.1475 69.918 11.1338 70.793V73.0488C11.1338 73.9785 11.2637 74.6712 11.5234 75.127C11.7832 75.5827 12.1911 75.8105 12.7471 75.8105C13.2803 75.8105 13.6745 75.6009 13.9297 75.1816C14.1849 74.7578 14.3193 74.097 14.333 73.1992V70.9502ZM17.3955 68.9609C17.3955 68.3594 17.5892 67.8672 17.9766 67.4844C18.3639 67.097 18.8721 66.9033 19.501 66.9033C20.139 66.9033 20.6494 67.097 21.0322 67.4844C21.4196 67.8672 21.6133 68.3708 21.6133 68.9951V69.4873C21.6133 70.0843 21.4196 70.5742 21.0322 70.957C20.6494 71.3398 20.1436 71.5312 19.5146 71.5312C18.8994 71.5312 18.3913 71.3444 17.9902 70.9707C17.5938 70.5924 17.3955 70.0843 17.3955 69.4463V68.9609ZM18.5576 69.4873C18.5576 69.8018 18.6442 70.057 18.8174 70.2529C18.9951 70.4443 19.2275 70.54 19.5146 70.54C19.7972 70.54 20.0251 70.4443 20.1982 70.2529C20.3714 70.057 20.458 69.7926 20.458 69.46V68.9609C20.458 68.6465 20.3691 68.3913 20.1914 68.1953C20.0182 67.9993 19.7881 67.9014 19.501 67.9014C19.2139 67.9014 18.9837 68.0016 18.8105 68.2021C18.6419 68.3981 18.5576 68.6579 18.5576 68.9814V69.4873ZM22.1807 74.5596C22.1807 73.9489 22.3789 73.4544 22.7754 73.0762C23.1719 72.6979 23.6777 72.5088 24.293 72.5088C24.9128 72.5088 25.4186 72.6979 25.8105 73.0762C26.207 73.4544 26.4053 73.9648 26.4053 74.6074V75.0928C26.4053 75.6852 26.2139 76.1751 25.8311 76.5625C25.4528 76.9453 24.9447 77.1367 24.3066 77.1367C23.6686 77.1367 23.1536 76.9476 22.7617 76.5693C22.3743 76.1865 22.1807 75.6829 22.1807 75.0586V74.5596ZM23.3428 75.0928C23.3428 75.4027 23.4316 75.6579 23.6094 75.8584C23.7917 76.0544 24.0241 76.1523 24.3066 76.1523C24.5983 76.1523 24.8262 76.0589 24.9902 75.8721C25.1589 75.6807 25.2432 75.4141 25.2432 75.0723V74.5596C25.2432 74.2406 25.1543 73.9854 24.9766 73.7939C24.7988 73.6025 24.571 73.5068 24.293 73.5068C24.0104 73.5068 23.7803 73.6025 23.6025 73.7939C23.4294 73.9854 23.3428 74.2497 23.3428 74.5869V75.0928ZM19.8564 76.2549L19.002 75.7627L23.8623 67.9834L24.7168 68.4756L19.8564 76.2549Z" fill="#718498"/>
<path d="M6.04785 109H4.39355V101.009L1.95312 101.843V100.441L5.83594 99.0127H6.04785V109ZM9.95117 104.064L10.4912 99.0469H15.8369V100.482H11.8721L11.5986 102.861C12.0589 102.597 12.5785 102.465 13.1572 102.465C14.1051 102.465 14.8411 102.768 15.3652 103.374C15.8939 103.98 16.1582 104.796 16.1582 105.821C16.1582 106.833 15.8665 107.64 15.2832 108.241C14.6999 108.838 13.9001 109.137 12.8838 109.137C11.9723 109.137 11.2158 108.879 10.6143 108.364C10.0173 107.845 9.69368 107.161 9.64355 106.313H11.25C11.3138 106.797 11.487 107.168 11.7695 107.428C12.0521 107.683 12.4212 107.811 12.877 107.811C13.3874 107.811 13.7839 107.628 14.0664 107.264C14.3535 106.899 14.4971 106.402 14.4971 105.773C14.4971 105.167 14.3398 104.689 14.0254 104.338C13.7109 103.982 13.278 103.805 12.7266 103.805C12.4258 103.805 12.1706 103.846 11.9609 103.928C11.7513 104.005 11.5234 104.16 11.2773 104.393L9.95117 104.064ZM17.3955 100.961C17.3955 100.359 17.5892 99.8672 17.9766 99.4844C18.3639 99.097 18.8721 98.9033 19.501 98.9033C20.139 98.9033 20.6494 99.097 21.0322 99.4844C21.4196 99.8672 21.6133 100.371 21.6133 100.995V101.487C21.6133 102.084 21.4196 102.574 21.0322 102.957C20.6494 103.34 20.1436 103.531 19.5146 103.531C18.8994 103.531 18.3913 103.344 17.9902 102.971C17.5938 102.592 17.3955 102.084 17.3955 101.446V100.961ZM18.5576 101.487C18.5576 101.802 18.6442 102.057 18.8174 102.253C18.9951 102.444 19.2275 102.54 19.5146 102.54C19.7972 102.54 20.0251 102.444 20.1982 102.253C20.3714 102.057 20.458 101.793 20.458 101.46V100.961C20.458 100.646 20.3691 100.391 20.1914 100.195C20.0182 99.9993 19.7881 99.9014 19.501 99.9014C19.2139 99.9014 18.9837 100.002 18.8105 100.202C18.6419 100.398 18.5576 100.658 18.5576 100.981V101.487ZM22.1807 106.56C22.1807 105.949 22.3789 105.454 22.7754 105.076C23.1719 104.698 23.6777 104.509 24.293 104.509C24.9128 104.509 25.4186 104.698 25.8105 105.076C26.207 105.454 26.4053 105.965 26.4053 106.607V107.093C26.4053 107.685 26.2139 108.175 25.8311 108.562C25.4528 108.945 24.9447 109.137 24.3066 109.137C23.6686 109.137 23.1536 108.948 22.7617 108.569C22.3743 108.187 22.1807 107.683 22.1807 107.059V106.56ZM23.3428 107.093C23.3428 107.403 23.4316 107.658 23.6094 107.858C23.7917 108.054 24.0241 108.152 24.3066 108.152C24.5983 108.152 24.8262 108.059 24.9902 107.872C25.1589 107.681 25.2432 107.414 25.2432 107.072V106.56C25.2432 106.241 25.1543 105.985 24.9766 105.794C24.7988 105.603 24.571 105.507 24.293 105.507C24.0104 105.507 23.7803 105.603 23.6025 105.794C23.4294 105.985 23.3428 106.25 23.3428 106.587V107.093ZM19.8564 108.255L19.002 107.763L23.8623 99.9834L24.7168 100.476L19.8564 108.255Z" fill="#718498"/>
<path d="M6.04785 141H4.39355V133.009L1.95312 133.843V132.441L5.83594 131.013H6.04785V141ZM15.9941 136.81C15.9941 138.241 15.7253 139.321 15.1875 140.05C14.6543 140.774 13.8408 141.137 12.7471 141.137C11.6715 141.137 10.8604 140.784 10.3135 140.077C9.77116 139.366 9.49316 138.316 9.47949 136.926V135.203C9.47949 133.772 9.74609 132.699 10.2793 131.983C10.8171 131.268 11.6351 130.91 12.7334 130.91C13.8226 130.91 14.6338 131.259 15.167 131.956C15.7048 132.653 15.9805 133.697 15.9941 135.087V136.81ZM14.333 134.95C14.333 134.016 14.2054 133.332 13.9502 132.899C13.695 132.462 13.2894 132.243 12.7334 132.243C12.1911 132.243 11.7923 132.451 11.5371 132.865C11.2819 133.275 11.1475 133.918 11.1338 134.793V137.049C11.1338 137.979 11.2637 138.671 11.5234 139.127C11.7832 139.583 12.1911 139.811 12.7471 139.811C13.2803 139.811 13.6745 139.601 13.9297 139.182C14.1849 138.758 14.3193 138.097 14.333 137.199V134.95ZM17.3955 132.961C17.3955 132.359 17.5892 131.867 17.9766 131.484C18.3639 131.097 18.8721 130.903 19.501 130.903C20.139 130.903 20.6494 131.097 21.0322 131.484C21.4196 131.867 21.6133 132.371 21.6133 132.995V133.487C21.6133 134.084 21.4196 134.574 21.0322 134.957C20.6494 135.34 20.1436 135.531 19.5146 135.531C18.8994 135.531 18.3913 135.344 17.9902 134.971C17.5938 134.592 17.3955 134.084 17.3955 133.446V132.961ZM18.5576 133.487C18.5576 133.802 18.6442 134.057 18.8174 134.253C18.9951 134.444 19.2275 134.54 19.5146 134.54C19.7972 134.54 20.0251 134.444 20.1982 134.253C20.3714 134.057 20.458 133.793 20.458 133.46V132.961C20.458 132.646 20.3691 132.391 20.1914 132.195C20.0182 131.999 19.7881 131.901 19.501 131.901C19.2139 131.901 18.9837 132.002 18.8105 132.202C18.6419 132.398 18.5576 132.658 18.5576 132.981V133.487ZM22.1807 138.56C22.1807 137.949 22.3789 137.454 22.7754 137.076C23.1719 136.698 23.6777 136.509 24.293 136.509C24.9128 136.509 25.4186 136.698 25.8105 137.076C26.207 137.454 26.4053 137.965 26.4053 138.607V139.093C26.4053 139.685 26.2139 140.175 25.8311 140.562C25.4528 140.945 24.9447 141.137 24.3066 141.137C23.6686 141.137 23.1536 140.948 22.7617 140.569C22.3743 140.187 22.1807 139.683 22.1807 139.059V138.56ZM23.3428 139.093C23.3428 139.403 23.4316 139.658 23.6094 139.858C23.7917 140.054 24.0241 140.152 24.3066 140.152C24.5983 140.152 24.8262 140.059 24.9902 139.872C25.1589 139.681 25.2432 139.414 25.2432 139.072V138.56C25.2432 138.241 25.1543 137.985 24.9766 137.794C24.7988 137.603 24.571 137.507 24.293 137.507C24.0104 137.507 23.7803 137.603 23.6025 137.794C23.4294 137.985 23.3428 138.25 23.3428 138.587V139.093ZM19.8564 140.255L19.002 139.763L23.8623 131.983L24.7168 132.476L19.8564 140.255Z" fill="#718498"/>
<path d="M9.95117 168.064L10.4912 163.047H15.8369V164.482H11.8721L11.5986 166.861C12.0589 166.597 12.5785 166.465 13.1572 166.465C14.1051 166.465 14.8411 166.768 15.3652 167.374C15.8939 167.98 16.1582 168.796 16.1582 169.821C16.1582 170.833 15.8665 171.64 15.2832 172.241C14.6999 172.838 13.9001 173.137 12.8838 173.137C11.9723 173.137 11.2158 172.879 10.6143 172.364C10.0173 171.845 9.69368 171.161 9.64355 170.313H11.25C11.3138 170.797 11.487 171.168 11.7695 171.428C12.0521 171.683 12.4212 171.811 12.877 171.811C13.3874 171.811 13.7839 171.628 14.0664 171.264C14.3535 170.899 14.4971 170.402 14.4971 169.773C14.4971 169.167 14.3398 168.689 14.0254 168.338C13.7109 167.982 13.278 167.805 12.7266 167.805C12.4258 167.805 12.1706 167.846 11.9609 167.928C11.7513 168.005 11.5234 168.16 11.2773 168.393L9.95117 168.064ZM17.3955 164.961C17.3955 164.359 17.5892 163.867 17.9766 163.484C18.3639 163.097 18.8721 162.903 19.501 162.903C20.139 162.903 20.6494 163.097 21.0322 163.484C21.4196 163.867 21.6133 164.371 21.6133 164.995V165.487C21.6133 166.084 21.4196 166.574 21.0322 166.957C20.6494 167.34 20.1436 167.531 19.5146 167.531C18.8994 167.531 18.3913 167.344 17.9902 166.971C17.5938 166.592 17.3955 166.084 17.3955 165.446V164.961ZM18.5576 165.487C18.5576 165.802 18.6442 166.057 18.8174 166.253C18.9951 166.444 19.2275 166.54 19.5146 166.54C19.7972 166.54 20.0251 166.444 20.1982 166.253C20.3714 166.057 20.458 165.793 20.458 165.46V164.961C20.458 164.646 20.3691 164.391 20.1914 164.195C20.0182 163.999 19.7881 163.901 19.501 163.901C19.2139 163.901 18.9837 164.002 18.8105 164.202C18.6419 164.398 18.5576 164.658 18.5576 164.981V165.487ZM22.1807 170.56C22.1807 169.949 22.3789 169.454 22.7754 169.076C23.1719 168.698 23.6777 168.509 24.293 168.509C24.9128 168.509 25.4186 168.698 25.8105 169.076C26.207 169.454 26.4053 169.965 26.4053 170.607V171.093C26.4053 171.685 26.2139 172.175 25.8311 172.562C25.4528 172.945 24.9447 173.137 24.3066 173.137C23.6686 173.137 23.1536 172.948 22.7617 172.569C22.3743 172.187 22.1807 171.683 22.1807 171.059V170.56ZM23.3428 171.093C23.3428 171.403 23.4316 171.658 23.6094 171.858C23.7917 172.054 24.0241 172.152 24.3066 172.152C24.5983 172.152 24.8262 172.059 24.9902 171.872C25.1589 171.681 25.2432 171.414 25.2432 171.072V170.56C25.2432 170.241 25.1543 169.985 24.9766 169.794C24.7988 169.603 24.571 169.507 24.293 169.507C24.0104 169.507 23.7803 169.603 23.6025 169.794C23.4294 169.985 23.3428 170.25 23.3428 170.587V171.093ZM19.8564 172.255L19.002 171.763L23.8623 163.983L24.7168 164.476L19.8564 172.255Z" fill="#718498"/>
<path d="M44.4297 207.064L44.9697 202.047H50.3154V203.482H46.3506L46.0771 205.861C46.5374 205.597 47.057 205.465 47.6357 205.465C48.5837 205.465 49.3197 205.768 49.8438 206.374C50.3724 206.98 50.6367 207.796 50.6367 208.821C50.6367 209.833 50.3451 210.64 49.7617 211.241C49.1784 211.838 48.3786 212.137 47.3623 212.137C46.4508 212.137 45.6943 211.879 45.0928 211.364C44.4958 210.845 44.1722 210.161 44.1221 209.313H45.7285C45.7923 209.797 45.9655 210.168 46.248 210.428C46.5306 210.683 46.8997 210.811 47.3555 210.811C47.8659 210.811 48.2624 210.628 48.5449 210.264C48.832 209.899 48.9756 209.402 48.9756 208.773C48.9756 208.167 48.8184 207.689 48.5039 207.338C48.1895 206.982 47.7565 206.805 47.2051 206.805C46.9043 206.805 46.6491 206.846 46.4395 206.928C46.2298 207.005 46.002 207.16 45.7559 207.393L44.4297 207.064ZM52.5166 212.854H51.2109L55.1279 202.047H56.4336L52.5166 212.854ZM61.9775 212H60.3232V204.009L57.8828 204.843V203.441L61.7656 202.013H61.9775V212ZM67.3574 206.265H68.3691C68.8796 206.26 69.2829 206.128 69.5791 205.868C69.8799 205.608 70.0303 205.232 70.0303 204.74C70.0303 204.266 69.9049 203.899 69.6543 203.64C69.4082 203.375 69.0299 203.243 68.5195 203.243C68.0729 203.243 67.7061 203.373 67.4189 203.633C67.1318 203.888 66.9883 204.223 66.9883 204.638H65.3271C65.3271 204.127 65.4616 203.662 65.7305 203.243C66.0039 202.824 66.3822 202.498 66.8652 202.266C67.3529 202.029 67.8975 201.91 68.499 201.91C69.4925 201.91 70.2718 202.161 70.8369 202.662C71.4066 203.159 71.6914 203.852 71.6914 204.74C71.6914 205.187 71.5479 205.608 71.2607 206.005C70.9782 206.397 70.6113 206.693 70.1602 206.894C70.707 207.08 71.1217 207.374 71.4043 207.775C71.6914 208.176 71.835 208.655 71.835 209.211C71.835 210.104 71.5273 210.815 70.9121 211.344C70.3014 211.872 69.4971 212.137 68.499 212.137C67.542 212.137 66.7581 211.882 66.1475 211.371C65.5368 210.861 65.2314 210.182 65.2314 209.334H66.8926C66.8926 209.771 67.0384 210.127 67.3301 210.4C67.6263 210.674 68.0228 210.811 68.5195 210.811C69.0345 210.811 69.4401 210.674 69.7363 210.4C70.0326 210.127 70.1807 209.73 70.1807 209.211C70.1807 208.687 70.0257 208.284 69.7158 208.001C69.4059 207.718 68.9456 207.577 68.335 207.577H67.3574V206.265Z" fill="#718498"/>
<path d="M103.43 207.064L103.97 202.047H109.315V203.482H105.351L105.077 205.861C105.537 205.597 106.057 205.465 106.636 205.465C107.584 205.465 108.32 205.768 108.844 206.374C109.372 206.98 109.637 207.796 109.637 208.821C109.637 209.833 109.345 210.64 108.762 211.241C108.178 211.838 107.379 212.137 106.362 212.137C105.451 212.137 104.694 211.879 104.093 211.364C103.496 210.845 103.172 210.161 103.122 209.313H104.729C104.792 209.797 104.965 210.168 105.248 210.428C105.531 210.683 105.9 210.811 106.355 210.811C106.866 210.811 107.262 210.628 107.545 210.264C107.832 209.899 107.976 209.402 107.976 208.773C107.976 208.167 107.818 207.689 107.504 207.338C107.189 206.982 106.757 206.805 106.205 206.805C105.904 206.805 105.649 206.846 105.439 206.928C105.23 207.005 105.002 207.16 104.756 207.393L103.43 207.064ZM111.517 212.854H110.211L114.128 202.047H115.434L111.517 212.854ZM120.978 212H119.323V204.009L116.883 204.843V203.441L120.766 202.013H120.978V212ZM130.705 204.672C130.705 205.16 130.58 205.595 130.329 205.978C130.078 206.356 129.737 206.654 129.304 206.873C129.823 207.115 130.222 207.445 130.5 207.864C130.783 208.284 130.924 208.757 130.924 209.286C130.924 210.161 130.628 210.856 130.035 211.371C129.443 211.882 128.654 212.137 127.67 212.137C126.681 212.137 125.888 211.879 125.291 211.364C124.699 210.849 124.402 210.157 124.402 209.286C124.402 208.753 124.544 208.274 124.826 207.851C125.109 207.427 125.505 207.101 126.016 206.873C125.587 206.654 125.248 206.356 124.997 205.978C124.751 205.595 124.628 205.16 124.628 204.672C124.628 203.824 124.901 203.152 125.448 202.655C125.995 202.159 126.733 201.91 127.663 201.91C128.597 201.91 129.338 202.159 129.885 202.655C130.432 203.152 130.705 203.824 130.705 204.672ZM129.263 209.204C129.263 208.712 129.115 208.315 128.818 208.015C128.527 207.709 128.139 207.557 127.656 207.557C127.173 207.557 126.786 207.707 126.494 208.008C126.207 208.309 126.063 208.707 126.063 209.204C126.063 209.692 126.205 210.081 126.487 210.373C126.774 210.665 127.169 210.811 127.67 210.811C128.171 210.811 128.561 210.669 128.839 210.387C129.121 210.104 129.263 209.71 129.263 209.204ZM129.051 204.733C129.051 204.3 128.925 203.945 128.675 203.667C128.424 203.384 128.087 203.243 127.663 203.243C127.239 203.243 126.904 203.378 126.658 203.646C126.412 203.911 126.289 204.273 126.289 204.733C126.289 205.189 126.412 205.551 126.658 205.82C126.909 206.089 127.246 206.224 127.67 206.224C128.094 206.224 128.429 206.089 128.675 205.82C128.925 205.551 129.051 205.189 129.051 204.733Z" fill="#718498"/>
<path d="M162.43 207.064L162.97 202.047H168.315V203.482H164.351L164.077 205.861C164.537 205.597 165.057 205.465 165.636 205.465C166.584 205.465 167.32 205.768 167.844 206.374C168.372 206.98 168.637 207.796 168.637 208.821C168.637 209.833 168.345 210.64 167.762 211.241C167.178 211.838 166.379 212.137 165.362 212.137C164.451 212.137 163.694 211.879 163.093 211.364C162.496 210.845 162.172 210.161 162.122 209.313H163.729C163.792 209.797 163.965 210.168 164.248 210.428C164.531 210.683 164.9 210.811 165.355 210.811C165.866 210.811 166.262 210.628 166.545 210.264C166.832 209.899 166.976 209.402 166.976 208.773C166.976 208.167 166.818 207.689 166.504 207.338C166.189 206.982 165.757 206.805 165.205 206.805C164.904 206.805 164.649 206.846 164.439 206.928C164.23 207.005 164.002 207.16 163.756 207.393L162.43 207.064ZM170.517 212.854H169.211L173.128 202.047H174.434L170.517 212.854ZM182.172 212H175.479V210.858L178.795 207.242C179.273 206.709 179.613 206.265 179.813 205.909C180.019 205.549 180.121 205.189 180.121 204.829C180.121 204.355 179.987 203.972 179.718 203.681C179.453 203.389 179.096 203.243 178.645 203.243C178.107 203.243 177.69 203.407 177.394 203.735C177.097 204.063 176.949 204.512 176.949 205.082H175.288C175.288 204.476 175.425 203.931 175.698 203.448C175.976 202.961 176.37 202.582 176.881 202.313C177.396 202.045 177.988 201.91 178.658 201.91C179.624 201.91 180.385 202.154 180.941 202.642C181.502 203.125 181.782 203.795 181.782 204.651C181.782 205.148 181.641 205.67 181.358 206.217C181.08 206.759 180.622 207.377 179.984 208.069L177.551 210.674H182.172V212ZM187.935 212H186.28V204.009L183.84 204.843V203.441L187.723 202.013H187.935V212Z" fill="#718498"/>
<path d="M221.43 207.064L221.97 202.047H227.315V203.482H223.351L223.077 205.861C223.537 205.597 224.057 205.465 224.636 205.465C225.584 205.465 226.32 205.768 226.844 206.374C227.372 206.98 227.637 207.796 227.637 208.821C227.637 209.833 227.345 210.64 226.762 211.241C226.178 211.838 225.379 212.137 224.362 212.137C223.451 212.137 222.694 211.879 222.093 211.364C221.496 210.845 221.172 210.161 221.122 209.313H222.729C222.792 209.797 222.965 210.168 223.248 210.428C223.531 210.683 223.9 210.811 224.355 210.811C224.866 210.811 225.262 210.628 225.545 210.264C225.832 209.899 225.976 209.402 225.976 208.773C225.976 208.167 225.818 207.689 225.504 207.338C225.189 206.982 224.757 206.805 224.205 206.805C223.904 206.805 223.649 206.846 223.439 206.928C223.23 207.005 223.002 207.16 222.756 207.393L221.43 207.064ZM229.517 212.854H228.211L232.128 202.047H233.434L229.517 212.854ZM241.172 212H234.479V210.858L237.795 207.242C238.273 206.709 238.613 206.265 238.813 205.909C239.019 205.549 239.121 205.189 239.121 204.829C239.121 204.355 238.987 203.972 238.718 203.681C238.453 203.389 238.096 203.243 237.645 203.243C237.107 203.243 236.69 203.407 236.394 203.735C236.097 204.063 235.949 204.512 235.949 205.082H234.288C234.288 204.476 234.425 203.931 234.698 203.448C234.976 202.961 235.37 202.582 235.881 202.313C236.396 202.045 236.988 201.91 237.658 201.91C238.624 201.91 239.385 202.154 239.941 202.642C240.502 203.125 240.782 203.795 240.782 204.651C240.782 205.148 240.641 205.67 240.358 206.217C240.08 206.759 239.622 207.377 238.984 208.069L236.551 210.674H241.172V212ZM247.604 201.999V203.373H247.399C246.47 203.387 245.727 203.642 245.171 204.139C244.615 204.635 244.285 205.34 244.18 206.251C244.713 205.69 245.394 205.41 246.224 205.41C247.103 205.41 247.796 205.72 248.302 206.34C248.812 206.96 249.067 207.759 249.067 208.739C249.067 209.751 248.769 210.571 248.172 211.2C247.579 211.825 246.8 212.137 245.834 212.137C244.84 212.137 244.034 211.77 243.414 211.036C242.799 210.302 242.491 209.341 242.491 208.151V207.584C242.491 205.839 242.915 204.471 243.763 203.482C244.615 202.493 245.839 201.999 247.434 201.999H247.604ZM245.82 206.75C245.456 206.75 245.121 206.853 244.815 207.058C244.515 207.263 244.294 207.536 244.152 207.878V208.384C244.152 209.122 244.307 209.71 244.617 210.147C244.927 210.58 245.328 210.797 245.82 210.797C246.312 210.797 246.702 210.612 246.989 210.243C247.276 209.874 247.42 209.389 247.42 208.787C247.42 208.186 247.274 207.696 246.982 207.317C246.691 206.939 246.303 206.75 245.82 206.75Z" fill="#718498"/>
<path d="M284.408 207.064L284.948 202.047H290.294V203.482H286.329L286.056 205.861C286.516 205.597 287.035 205.465 287.614 205.465C288.562 205.465 289.298 205.768 289.822 206.374C290.351 206.98 290.615 207.796 290.615 208.821C290.615 209.833 290.324 210.64 289.74 211.241C289.157 211.838 288.357 212.137 287.341 212.137C286.429 212.137 285.673 211.879 285.071 211.364C284.474 210.845 284.151 210.161 284.101 209.313H285.707C285.771 209.797 285.944 210.168 286.227 210.428C286.509 210.683 286.878 210.811 287.334 210.811C287.844 210.811 288.241 210.628 288.523 210.264C288.811 209.899 288.954 209.402 288.954 208.773C288.954 208.167 288.797 207.689 288.482 207.338C288.168 206.982 287.735 206.805 287.184 206.805C286.883 206.805 286.628 206.846 286.418 206.928C286.208 207.005 285.98 207.16 285.734 207.393L284.408 207.064ZM292.495 212.854H291.189L295.106 202.047H296.412L292.495 212.854ZM301.956 212H300.302V204.009L297.861 204.843V203.441L301.744 202.013H301.956V212Z" fill="#718498"/>
<path d="M348.132 201.999V203.373H347.927C346.997 203.387 346.254 203.642 345.698 204.139C345.142 204.635 344.812 205.34 344.707 206.251C345.24 205.69 345.922 205.41 346.751 205.41C347.631 205.41 348.323 205.72 348.829 206.34C349.34 206.96 349.595 207.759 349.595 208.739C349.595 209.751 349.296 210.571 348.699 211.2C348.107 211.825 347.327 212.137 346.361 212.137C345.368 212.137 344.561 211.77 343.941 211.036C343.326 210.302 343.019 209.341 343.019 208.151V207.584C343.019 205.839 343.442 204.471 344.29 203.482C345.142 202.493 346.366 201.999 347.961 201.999H348.132ZM346.348 206.75C345.983 206.75 345.648 206.853 345.343 207.058C345.042 207.263 344.821 207.536 344.68 207.878V208.384C344.68 209.122 344.835 209.71 345.145 210.147C345.454 210.58 345.855 210.797 346.348 210.797C346.84 210.797 347.229 210.612 347.517 210.243C347.804 209.874 347.947 209.389 347.947 208.787C347.947 208.186 347.801 207.696 347.51 207.317C347.218 206.939 346.831 206.75 346.348 206.75ZM351.495 212.854H350.189L354.106 202.047H355.412L351.495 212.854ZM362.077 208.452H363.314V209.785H362.077V212H360.416V209.785H356.116L356.068 208.773L360.361 202.047H362.077V208.452ZM357.812 208.452H360.416V204.296L360.293 204.515L357.812 208.452Z" fill="#718498"/>
<path d="M407.132 201.999V203.373H406.927C405.997 203.387 405.254 203.642 404.698 204.139C404.142 204.635 403.812 205.34 403.707 206.251C404.24 205.69 404.922 205.41 405.751 205.41C406.631 205.41 407.323 205.72 407.829 206.34C408.34 206.96 408.595 207.759 408.595 208.739C408.595 209.751 408.296 210.571 407.699 211.2C407.107 211.825 406.327 212.137 405.361 212.137C404.368 212.137 403.561 211.77 402.941 211.036C402.326 210.302 402.019 209.341 402.019 208.151V207.584C402.019 205.839 402.442 204.471 403.29 203.482C404.142 202.493 405.366 201.999 406.961 201.999H407.132ZM405.348 206.75C404.983 206.75 404.648 206.853 404.343 207.058C404.042 207.263 403.821 207.536 403.68 207.878V208.384C403.68 209.122 403.835 209.71 404.145 210.147C404.454 210.58 404.855 210.797 405.348 210.797C405.84 210.797 406.229 210.612 406.517 210.243C406.804 209.874 406.947 209.389 406.947 208.787C406.947 208.186 406.801 207.696 406.51 207.317C406.218 206.939 405.831 206.75 405.348 206.75ZM410.495 212.854H409.189L413.106 202.047H414.412L410.495 212.854ZM422.082 202.97L418.104 212H416.36L420.332 203.38H415.185V202.047H422.082V202.97Z" fill="#718498"/>
<line x1="57.1943" y1="22" x2="57.1943" y2="217" stroke="#AAAAAA" stroke-width="0.5" stroke-dasharray="2 5"/>
<line x1="38.9443" y1="40.75" x2="425.944" y2="40.75" stroke="#D9D9D9" stroke-width="0.5"/>
<line x1="38.9443" y1="72.75" x2="425.944" y2="72.75" stroke="#D9D9D9" stroke-width="0.5"/>
<line x1="38.9443" y1="104.75" x2="425.944" y2="104.75" stroke="#D9D9D9" stroke-width="0.5"/>
<line x1="38.9443" y1="136.75" x2="425.944" y2="136.75" stroke="#D9D9D9" stroke-width="0.5"/>
<line x1="38.9443" y1="168.75" x2="425.944" y2="168.75" stroke="#D9D9D9" stroke-width="0.5"/>
<line x1="38.9443" y1="200.75" x2="425.944" y2="200.75" stroke="#D9D9D9" stroke-width="0.5"/>
<line x1="117.194" y1="22" x2="117.194" y2="217" stroke="#AAAAAA" stroke-width="0.5" stroke-dasharray="2 5"/>
<line x1="176.194" y1="22" x2="176.194" y2="217" stroke="#AAAAAA" stroke-width="0.5" stroke-dasharray="2 5"/>
<line x1="235.194" y1="22" x2="235.194" y2="217" stroke="#AAAAAA" stroke-width="0.5" stroke-dasharray="2 5"/>
<line x1="293.194" y1="22" x2="293.194" y2="217" stroke="#AAAAAA" stroke-width="0.5" stroke-dasharray="2 5"/>
<line x1="353.194" y1="22" x2="353.194" y2="217" stroke="#AAAAAA" stroke-width="0.5" stroke-dasharray="2 5"/>
<line x1="412.194" y1="22" x2="412.194" y2="217" stroke="#AAAAAA" stroke-width="0.5" stroke-dasharray="2 5"/>
<path d="M57.9443 168.5C86.9443 168.5 86.9443 105.5 117.444 105.5C147.944 105.5 148.944 136 176.444 136C203.944 136 205.944 72.5 235.444 72.5C264.944 72.5 264.444 145 293.444 145C322.444 145 321.944 126.5 353.444 126.5C384.944 126.5 383.444 150 412.444 150" stroke="#34A4C7"/>
</svg>
