<svg width="16" height="16" viewBox="0 0 16 16" fill="none" xmlns="http://www.w3.org/2000/svg">
<path fill-rule="evenodd" clip-rule="evenodd" d="M8.42293 0L16 7.35341L15.1541 8.25357L13.9509 7.09224V15.3661L13.3552 16H9.78109L9.18541 15.3661V10.9287H6.80268V15.3661L6.207 16H2.63291L2.03723 15.3661V7.10238L0.845868 8.25357L0 7.35341L7.56515 0H8.42293ZM3.22859 5.94992V14.7322H5.61132V10.2948L6.207 9.66086H9.78109L10.3768 10.2948V14.7322H12.7595V5.94231L7.99404 1.3439L3.22859 5.94992Z" fill="#173145"/>
</svg>
